[gd_scene load_steps=42 format=2]

[ext_resource path="res://assets/tilesets/tileset_floor_1.png" type="Texture" id=1]
[ext_resource path="res://assets/light.png" type="Texture" id=2]
[ext_resource path="res://Szenen/Rooms/BigRoomCamera.gd" type="Script" id=3]

[sub_resource type="OccluderPolygon2D" id=1]
polygon = PoolVector2Array( 0, 0, 48, 0, 48, 48, 0, 48 )

[sub_resource type="OccluderPolygon2D" id=2]
polygon = PoolVector2Array( 0, 0, 48, 0, 48, 48, 0, 48 )

[sub_resource type="OccluderPolygon2D" id=3]
polygon = PoolVector2Array( 0, 0, 48, 0, 48, 48, 0, 48 )

[sub_resource type="OccluderPolygon2D" id=4]
polygon = PoolVector2Array( 0, 0, 48, 0, 48, 48, 0, 48 )

[sub_resource type="OccluderPolygon2D" id=5]
polygon = PoolVector2Array( 0, 0, 48, 0, 48, 48, 0, 48 )

[sub_resource type="OccluderPolygon2D" id=6]
polygon = PoolVector2Array( 0, 0, 48, 0, 48, 48, 0, 48 )

[sub_resource type="OccluderPolygon2D" id=7]
polygon = PoolVector2Array( 0, 0, 48, 0, 48, 48, 0, 48 )

[sub_resource type="OccluderPolygon2D" id=8]
polygon = PoolVector2Array( 0, 0, 48, 0, 48, 48, 0, 48 )

[sub_resource type="OccluderPolygon2D" id=9]
polygon = PoolVector2Array( 0, 0, 48, 0, 48, 48, 0, 48 )

[sub_resource type="OccluderPolygon2D" id=10]
polygon = PoolVector2Array( 0, 0, 48, 0, 48, 48, 0, 48 )

[sub_resource type="OccluderPolygon2D" id=11]
polygon = PoolVector2Array( 0, 0, 48, 0, 48, 48, 0, 48 )

[sub_resource type="OccluderPolygon2D" id=12]
polygon = PoolVector2Array( 0, 0, 48, 0, 48, 48, 0, 48 )

[sub_resource type="ConvexPolygonShape2D" id=13]
points = PoolVector2Array( 0, 0, 48, 0, 48, 48, 0, 48 )

[sub_resource type="ConvexPolygonShape2D" id=14]
points = PoolVector2Array( 0, 0, 48, 0, 48, 48, 0, 48 )

[sub_resource type="ConvexPolygonShape2D" id=15]
points = PoolVector2Array( 0, 0, 48, 0, 48, 48, 0, 48 )

[sub_resource type="ConvexPolygonShape2D" id=16]
points = PoolVector2Array( 0, 0, 48, 0, 48, 48, 0, 48 )

[sub_resource type="ConvexPolygonShape2D" id=17]
points = PoolVector2Array( 0, 0, 48, 0, 48, 48, 0, 48 )

[sub_resource type="ConvexPolygonShape2D" id=18]
points = PoolVector2Array( 0, 0, 48, 0, 48, 48, 0, 48 )

[sub_resource type="ConvexPolygonShape2D" id=19]
points = PoolVector2Array( 0, 0, 48, 0, 48, 48, 0, 48 )

[sub_resource type="ConvexPolygonShape2D" id=20]
points = PoolVector2Array( 0, 0, 48, 0, 48, 48, 0, 48 )

[sub_resource type="ConvexPolygonShape2D" id=21]
points = PoolVector2Array( 0, 0, 48, 0, 48, 48, 0, 48 )

[sub_resource type="ConvexPolygonShape2D" id=22]
points = PoolVector2Array( 0, 0, 48, 0, 48, 48, 0, 48 )

[sub_resource type="ConvexPolygonShape2D" id=23]
points = PoolVector2Array( 0, 0, 48, 0, 48, 48, 0, 48 )

[sub_resource type="ConvexPolygonShape2D" id=24]
points = PoolVector2Array( 0, 0, 48, 0, 48, 48, 0, 48 )

[sub_resource type="ConvexPolygonShape2D" id=25]
points = PoolVector2Array( 0, 0, 48, 0, 48, 48, 0, 48 )

[sub_resource type="ConvexPolygonShape2D" id=26]
points = PoolVector2Array( 0, 0, 48, 0, 48, 48, 0, 48 )

[sub_resource type="ConvexPolygonShape2D" id=27]
points = PoolVector2Array( 0, 0, 48, 0, 48, 48, 0, 48 )

[sub_resource type="ConvexPolygonShape2D" id=28]
points = PoolVector2Array( 0, 0, 48, 0, 48, 48, 0, 48 )

[sub_resource type="ConvexPolygonShape2D" id=29]
points = PoolVector2Array( 0, 0, 48, 0, 48, 48, 0, 48 )

[sub_resource type="ConvexPolygonShape2D" id=30]
points = PoolVector2Array( 0, 0, 48, 0, 48, 48, 0, 48 )

[sub_resource type="ConvexPolygonShape2D" id=31]
points = PoolVector2Array( 0, 0, 48, 0, 48, 48, 0, 48 )

[sub_resource type="ConvexPolygonShape2D" id=32]
points = PoolVector2Array( 0, 0, 48, 0, 48, 48, 0, 48 )

[sub_resource type="ConvexPolygonShape2D" id=33]
points = PoolVector2Array( 0, 0, 48, 0, 48, 48, 0, 48 )

[sub_resource type="ConvexPolygonShape2D" id=34]
points = PoolVector2Array( 0, 0, 48, 0, 48, 48, 0, 48 )

[sub_resource type="ConvexPolygonShape2D" id=35]
points = PoolVector2Array( 0, 0, 48, 0, 48, 48, 0, 48 )

[sub_resource type="ConvexPolygonShape2D" id=36]
points = PoolVector2Array( 0, 0, 48, 0, 48, 48, 0, 48 )

[sub_resource type="ConvexPolygonShape2D" id=37]
points = PoolVector2Array( 0, 0, 48, 0, 48, 48, 0, 48 )

[sub_resource type="TileSet" id=38]
0/name = "tileset_floor_1.png 0"
0/texture = ExtResource( 1 )
0/tex_offset = Vector2( 0, 0 )
0/modulate = Color( 1, 1, 1, 1 )
0/region = Rect2( 0, 0, 336, 240 )
0/tile_mode = 2
0/autotile/icon_coordinate = Vector2( 0, 0 )
0/autotile/tile_size = Vector2( 48, 48 )
0/autotile/spacing = 0
0/autotile/occluder_map = [ Vector2( 0, 4 ), SubResource( 1 ), Vector2( 1, 4 ), SubResource( 2 ), Vector2( 2, 0 ), SubResource( 3 ), Vector2( 2, 1 ), SubResource( 4 ), Vector2( 2, 2 ), SubResource( 5 ), Vector2( 2, 3 ), SubResource( 6 ), Vector2( 2, 4 ), SubResource( 7 ), Vector2( 3, 4 ), SubResource( 8 ), Vector2( 4, 4 ), SubResource( 9 ), Vector2( 5, 2 ), SubResource( 10 ), Vector2( 5, 3 ), SubResource( 11 ), Vector2( 5, 4 ), SubResource( 12 ) ]
0/autotile/navpoly_map = [  ]
0/autotile/priority_map = [  ]
0/autotile/z_index_map = [  ]
0/occluder_offset = Vector2( 0, 0 )
0/navigation_offset = Vector2( 0, 0 )
0/shape_offset = Vector2( 0, 0 )
0/shape_transform = Transform2D( 1, 0, 0, 1, 0, 0 )
0/shape = SubResource( 13 )
0/shape_one_way = false
0/shape_one_way_margin = 1.0
0/shapes = [ {
"autotile_coord": Vector2( 1, 0 ),
"one_way": false,
"one_way_margin": 1.0,
"shape": SubResource( 13 ),
"shape_transform": Transform2D( 1, 0, 0, 1, 0, 0 )
}, {
"autotile_coord": Vector2( 1, 0 ),
"one_way": false,
"one_way_margin": 1.0,
"shape": SubResource( 14 ),
"shape_transform": Transform2D( 1, 0, 0, 1, 0, 0 )
}, {
"autotile_coord": Vector2( 6, 3 ),
"one_way": false,
"one_way_margin": 1.0,
"shape": SubResource( 15 ),
"shape_transform": Transform2D( 1, 0, 0, 1, 0, 0 )
}, {
"autotile_coord": Vector2( 1, 1 ),
"one_way": false,
"one_way_margin": 1.0,
"shape": SubResource( 16 ),
"shape_transform": Transform2D( 1, 0, 0, 1, 0, 0 )
}, {
"autotile_coord": Vector2( 1, 2 ),
"one_way": false,
"one_way_margin": 1.0,
"shape": SubResource( 17 ),
"shape_transform": Transform2D( 1, 0, 0, 1, 0, 0 )
}, {
"autotile_coord": Vector2( 1, 2 ),
"one_way": false,
"one_way_margin": 1.0,
"shape": SubResource( 18 ),
"shape_transform": Transform2D( 1, 0, 0, 1, 0, 0 )
}, {
"autotile_coord": Vector2( 1, 3 ),
"one_way": false,
"one_way_margin": 1.0,
"shape": SubResource( 19 ),
"shape_transform": Transform2D( 1, 0, 0, 1, 0, 0 )
}, {
"autotile_coord": Vector2( 6, 4 ),
"one_way": false,
"one_way_margin": 1.0,
"shape": SubResource( 20 ),
"shape_transform": Transform2D( 1, 0, 0, 1, 0, 0 )
}, {
"autotile_coord": Vector2( 5, 0 ),
"one_way": false,
"one_way_margin": 1.0,
"shape": SubResource( 21 ),
"shape_transform": Transform2D( 1, 0, 0, 1, 0, 0 )
}, {
"autotile_coord": Vector2( 5, 1 ),
"one_way": false,
"one_way_margin": 1.0,
"shape": SubResource( 22 ),
"shape_transform": Transform2D( 1, 0, 0, 1, 0, 0 )
}, {
"autotile_coord": Vector2( 0, 4 ),
"one_way": false,
"one_way_margin": 1.0,
"shape": SubResource( 23 ),
"shape_transform": Transform2D( 1, 0, 0, 1, 0, 0 )
}, {
"autotile_coord": Vector2( 1, 4 ),
"one_way": false,
"one_way_margin": 1.0,
"shape": SubResource( 24 ),
"shape_transform": Transform2D( 1, 0, 0, 1, 0, 0 )
}, {
"autotile_coord": Vector2( 2, 4 ),
"one_way": false,
"one_way_margin": 1.0,
"shape": SubResource( 25 ),
"shape_transform": Transform2D( 1, 0, 0, 1, 0, 0 )
}, {
"autotile_coord": Vector2( 2, 3 ),
"one_way": false,
"one_way_margin": 1.0,
"shape": SubResource( 26 ),
"shape_transform": Transform2D( 1, 0, 0, 1, 0, 0 )
}, {
"autotile_coord": Vector2( 2, 1 ),
"one_way": false,
"one_way_margin": 1.0,
"shape": SubResource( 27 ),
"shape_transform": Transform2D( 1, 0, 0, 1, 0, 0 )
}, {
"autotile_coord": Vector2( 2, 2 ),
"one_way": false,
"one_way_margin": 1.0,
"shape": SubResource( 28 ),
"shape_transform": Transform2D( 1, 0, 0, 1, 0, 0 )
}, {
"autotile_coord": Vector2( 2, 0 ),
"one_way": false,
"one_way_margin": 1.0,
"shape": SubResource( 29 ),
"shape_transform": Transform2D( 1, 0, 0, 1, 0, 0 )
}, {
"autotile_coord": Vector2( 3, 4 ),
"one_way": false,
"one_way_margin": 1.0,
"shape": SubResource( 30 ),
"shape_transform": Transform2D( 1, 0, 0, 1, 0, 0 )
}, {
"autotile_coord": Vector2( 4, 4 ),
"one_way": false,
"one_way_margin": 1.0,
"shape": SubResource( 31 ),
"shape_transform": Transform2D( 1, 0, 0, 1, 0, 0 )
}, {
"autotile_coord": Vector2( 5, 3 ),
"one_way": false,
"one_way_margin": 1.0,
"shape": SubResource( 32 ),
"shape_transform": Transform2D( 1, 0, 0, 1, 0, 0 )
}, {
"autotile_coord": Vector2( 5, 2 ),
"one_way": false,
"one_way_margin": 1.0,
"shape": SubResource( 33 ),
"shape_transform": Transform2D( 1, 0, 0, 1, 0, 0 )
}, {
"autotile_coord": Vector2( 5, 4 ),
"one_way": false,
"one_way_margin": 1.0,
"shape": SubResource( 34 ),
"shape_transform": Transform2D( 1, 0, 0, 1, 0, 0 )
}, {
"autotile_coord": Vector2( 6, 0 ),
"one_way": false,
"one_way_margin": 1.0,
"shape": SubResource( 35 ),
"shape_transform": Transform2D( 1, 0, 0, 1, 0, 0 )
}, {
"autotile_coord": Vector2( 6, 1 ),
"one_way": false,
"one_way_margin": 1.0,
"shape": SubResource( 36 ),
"shape_transform": Transform2D( 1, 0, 0, 1, 0, 0 )
}, {
"autotile_coord": Vector2( 6, 2 ),
"one_way": false,
"one_way_margin": 1.0,
"shape": SubResource( 37 ),
"shape_transform": Transform2D( 1, 0, 0, 1, 0, 0 )
} ]
0/z_index = 0
1/name = "tileset_floor_1.png 1"
1/texture = ExtResource( 1 )
1/tex_offset = Vector2( 0, 0 )
1/modulate = Color( 1, 1, 1, 1 )
1/region = Rect2( 96, 48, 48, 48 )
1/tile_mode = 2
1/autotile/icon_coordinate = Vector2( 0, 0 )
1/autotile/tile_size = Vector2( 48, 48 )
1/autotile/spacing = 0
1/autotile/occluder_map = [  ]
1/autotile/navpoly_map = [  ]
1/autotile/priority_map = [  ]
1/autotile/z_index_map = [  ]
1/occluder_offset = Vector2( 0, 0 )
1/navigation_offset = Vector2( 0, 0 )
1/shape_offset = Vector2( 0, 0 )
1/shape_transform = Transform2D( 1, 0, 0, 1, 0, 0 )
1/shape_one_way = false
1/shape_one_way_margin = 0.0
1/shapes = [  ]
1/z_index = 0

[node name="BigRoom" type="Node2D"]

[node name="Background(TEMP)" type="ColorRect" parent="."]
light_mask = 0
margin_left = -613.265
margin_top = -446.984
margin_right = 1676.73
margin_bottom = 1061.02
color = Color( 0, 0, 0, 1 )
__meta__ = {
"_edit_use_anchors_": false
}

[node name="CanvasModulate" type="CanvasModulate" parent="."]
color = Color( 0, 0, 0, 1 )

[node name="TileMap" type="TileMap" parent="."]
light_mask = 3
tile_set = SubResource( 38 )
cell_size = Vector2( 48, 48 )
occluder_light_mask = 3
format = 1
tile_data = PoolIntArray( 3, 0, 196610, 4, 0, 262147, 5, 0, 262147, 6, 0, 262147, 7, 0, 262147, 8, 0, 262147, 9, 0, 262147, 10, 0, 262147, 11, 0, 262147, 12, 0, 262147, 13, 0, 262147, 14, 0, 262147, 15, 0, 262147, 16, 0, 262147, 17, 0, 262147, 18, 0, 262147, 19, 0, 262147, 20, 0, 262147, 21, 0, 262147, 22, 0, 262147, 23, 0, 262147, 24, 0, 262147, 25, 0, 262147, 26, 0, 262147, 27, 0, 262147, 28, 0, 262147, 29, 0, 262147, 30, 0, 2, 65539, 0, 262146, 65540, 0, 1, 65541, 0, 1, 65542, 0, 1, 65543, 0, 1, 65544, 0, 1, 65545, 0, 1, 65547, 0, 1, 65548, 0, 1, 65549, 0, 131073, 65550, 0, 1, 65551, 0, 1, 65552, 0, 1, 65553, 0, 1, 65554, 0, 1, 65555, 0, 1, 65556, 0, 131073, 65557, 0, 1, 65558, 0, 1, 65560, 0, 1, 65561, 0, 1, 65562, 0, 1, 65563, 0, 1, 65564, 0, 1, 65565, 0, 1, 65566, 0, 262144, 131075, 0, 262146, 131076, 0, 65537, 131077, 0, 65537, 131078, 0, 65537, 131079, 0, 65537, 131080, 0, 65537, 131081, 0, 65537, 131083, 0, 65537, 131084, 0, 65537, 131085, 0, 196609, 131086, 0, 65537, 131087, 0, 65537, 131088, 0, 65537, 131089, 0, 65537, 131090, 0, 65537, 131091, 0, 65537, 131092, 0, 196609, 131093, 0, 65537, 131094, 0, 65537, 131096, 0, 65537, 131097, 0, 65537, 131098, 0, 65537, 131099, 0, 65537, 131100, 0, 65537, 131101, 0, 65537, 131102, 0, 262144, 196611, 0, 262146, 196612, 0, 0, 196613, 0, 0, 196614, 0, 0, 196615, 0, 0, 196616, 0, 131072, 196617, 0, 65536, 196618, 0, 65536, 196619, 0, 0, 196620, 0, 0, 196621, 0, 0, 196622, 0, 0, 196623, 0, 196608, 196624, 0, 0, 196625, 0, 0, 196626, 0, 0, 196627, 0, 0, 196628, 0, 0, 196629, 0, 196608, 196630, 0, 0, 196631, 0, 0, 196632, 0, 0, 196633, 0, 0, 196634, 0, 0, 196635, 0, 0, 196636, 0, 131072, 196637, 0, 0, 196638, 0, 262144, 262147, 0, 196613, 262148, 0, 0, 262149, 0, 0, 262150, 0, 196608, 262151, 0, 0, 262152, 0, 0, 262153, 0, 0, 262154, 0, 0, 262155, 0, 196608, 262156, 0, 0, 262157, 0, 65536, 262158, 0, 65536, 262159, 0, 65536, 262160, 0, 0, 262161, 0, 0, 262162, 0, 0, 262163, 0, 0, 262164, 0, 0, 262165, 0, 0, 262166, 0, 0, 262167, 0, 0, 262168, 0, 0, 262169, 0, 0, 262170, 0, 0, 262171, 0, 0, 262172, 0, 0, 262173, 0, 0, 262174, 0, 131077, 327684, 0, 0, 327685, 0, 0, 327686, 0, 0, 327687, 0, 0, 327688, 0, 65536, 327689, 0, 65536, 327690, 0, 65536, 327691, 0, 0, 327692, 0, 0, 327693, 0, 0, 327694, 0, 0, 327695, 0, 0, 327696, 0, 0, 327697, 0, 0, 327698, 0, 0, 327699, 0, 0, 327700, 0, 0, 327701, 0, 0, 327702, 0, 131072, 327703, 0, 0, 327704, 0, 131072, 327705, 0, 0, 327706, 0, 131072, 327707, 0, 0, 327708, 0, 0, 327709, 0, 0, 393219, 0, 262149, 393220, 0, 0, 393221, 0, 0, 393222, 0, 0, 393223, 0, 0, 393224, 0, 0, 393225, 0, 196608, 393226, 0, 196608, 393227, 0, 65536, 393228, 0, 0, 393229, 0, 0, 393230, 0, 65536, 393231, 0, 65536, 393232, 0, 0, 393233, 0, 0, 393234, 0, 131072, 393235, 0, 0, 393236, 0, 0, 393237, 0, 0, 393238, 0, 0, 393239, 0, 0, 393240, 0, 0, 393241, 0, 0, 393242, 0, 131072, 393243, 0, 196608, 393244, 0, 0, 393245, 0, 0, 393246, 0, 262148, 458755, 0, 262146, 458756, 0, 0, 458757, 0, 65536, 458758, 0, 131072, 458759, 0, 0, 458760, 0, 0, 458761, 0, 0, 458762, 0, 0, 458763, 0, 0, 458764, 0, 0, 458765, 0, 65536, 458766, 0, 65536, 458767, 0, 65536, 458768, 0, 0, 458769, 0, 196608, 458770, 0, 0, 458771, 0, 131072, 458772, 0, 0, 458773, 0, 0, 458774, 0, 0, 458775, 0, 0, 458776, 0, 0, 458777, 0, 0, 458778, 0, 0, 458779, 0, 0, 458780, 0, 0, 458781, 0, 0, 458782, 0, 262144, 524291, 0, 262146, 524292, 0, 196608, 524293, 0, 65536, 524294, 0, 0, 524295, 0, 0, 524296, 0, 65536, 524297, 0, 0, 524298, 0, 0, 524299, 0, 0, 524300, 0, 0, 524301, 0, 0, 524302, 0, 0, 524303, 0, 65536, 524304, 0, 0, 524305, 0, 0, 524306, 0, 0, 524307, 0, 0, 524308, 0, 65536, 524309, 0, 65536, 524310, 0, 0, 524311, 0, 0, 524312, 0, 0, 524313, 0, 0, 524314, 0, 0, 524315, 0, 0, 524316, 0, 0, 524317, 0, 0, 524318, 0, 262144, 589827, 0, 262146, 589828, 0, 0, 589829, 0, 65536, 589830, 0, 0, 589831, 0, 0, 589832, 0, 131072, 589833, 0, 0, 589834, 0, 0, 589835, 0, 0, 589836, 0, 0, 589837, 0, 65536, 589838, 0, 65536, 589839, 0, 65536, 589840, 0, 0, 589841, 0, 0, 589842, 0, 196608, 589843, 0, 0, 589844, 0, 0, 589845, 0, 0, 589846, 0, 0, 589847, 0, 0, 589848, 0, 0, 589849, 0, 0, 589850, 0, 0, 589851, 0, 0, 589852, 0, 131072, 589853, 0, 0, 589854, 0, 262144, 655363, 0, 196613, 655364, 0, 0, 655365, 0, 0, 655366, 0, 0, 655367, 0, 0, 655368, 0, 131072, 655369, 0, 65536, 655370, 0, 0, 655371, 0, 0, 655372, 0, 0, 655373, 0, 0, 655374, 0, 0, 655375, 0, 0, 655376, 0, 0, 655377, 0, 65536, 655378, 0, 0, 655379, 0, 0, 655380, 0, 0, 655381, 0, 0, 655382, 0, 0, 655383, 0, 0, 655384, 0, 0, 655385, 0, 131072, 655386, 0, 0, 655387, 0, 0, 655388, 0, 131072, 655389, 0, 0, 655390, 0, 131077, 720900, 0, 0, 720901, 0, 131072, 720902, 0, 0, 720903, 0, 0, 720904, 0, 65536, 720905, 0, 65536, 720906, 0, 0, 720907, 0, 0, 720908, 0, 0, 720909, 0, 0, 720910, 0, 0, 720911, 0, 0, 720912, 0, 0, 720913, 0, 65536, 720914, 0, 0, 720915, 0, 0, 720916, 0, 0, 720917, 0, 0, 720918, 0, 0, 720919, 0, 0, 720920, 0, 0, 720921, 0, 65536, 720922, 0, 0, 720923, 0, 196608, 720924, 0, 0, 720925, 0, 0, 786435, 0, 262149, 786436, 0, 0, 786437, 0, 0, 786438, 0, 65536, 786439, 0, 0, 786440, 0, 65536, 786441, 0, 0, 786442, 0, 131072, 786443, 0, 131072, 786444, 0, 131072, 786445, 0, 131072, 786446, 0, 0, 786447, 0, 0, 786448, 0, 0, 786449, 0, 0, 786450, 0, 131072, 786451, 0, 0, 786452, 0, 0, 786453, 0, 0, 786454, 0, 131072, 786455, 0, 0, 786456, 0, 0, 786457, 0, 65536, 786458, 0, 0, 786459, 0, 0, 786460, 0, 0, 786461, 0, 0, 786462, 0, 262148, 851971, 0, 262146, 851972, 0, 0, 851973, 0, 65536, 851974, 0, 65536, 851975, 0, 131072, 851976, 0, 0, 851977, 0, 0, 851978, 0, 196608, 851979, 0, 0, 851980, 0, 0, 851981, 0, 0, 851982, 0, 65536, 851983, 0, 0, 851984, 0, 0, 851985, 0, 0, 851986, 0, 0, 851987, 0, 0, 851988, 0, 0, 851989, 0, 0, 851990, 0, 0, 851991, 0, 0, 851992, 0, 0, 851993, 0, 0, 851994, 0, 0, 851995, 0, 131072, 851996, 0, 0, 851997, 0, 0, 851998, 0, 262144, 917507, 0, 262146, 917508, 0, 0, 917509, 0, 0, 917510, 0, 196608, 917511, 0, 0, 917512, 0, 0, 917513, 0, 0, 917514, 0, 0, 917515, 0, 0, 917516, 0, 0, 917517, 0, 0, 917518, 0, 0, 917519, 0, 0, 917520, 0, 0, 917521, 0, 0, 917522, 0, 0, 917523, 0, 0, 917524, 0, 0, 917525, 0, 0, 917526, 0, 0, 917527, 0, 0, 917528, 0, 0, 917529, 0, 0, 917530, 0, 0, 917531, 0, 131072, 917532, 0, 0, 917533, 0, 0, 917534, 0, 262144, 983043, 0, 131074, 983044, 0, 262145, 983045, 0, 262145, 983046, 0, 262145, 983047, 0, 262145, 983048, 0, 262145, 983049, 0, 262149, 983051, 0, 262148, 983052, 0, 262145, 983053, 0, 262145, 983054, 0, 262145, 983055, 0, 262145, 983056, 0, 262145, 983057, 0, 262145, 983058, 0, 262145, 983059, 0, 262145, 983060, 0, 262145, 983061, 0, 262145, 983062, 0, 262149, 983064, 0, 262148, 983065, 0, 262145, 983066, 0, 262145, 983067, 0, 262145, 983068, 0, 262145, 983069, 0, 262145, 983070, 0, 65538 )

[node name="Camera2D" type="Camera2D" parent="."]
position = Vector2( 859.35, 414.393 )
scale = Vector2( 2.87956, 2.05074 )
current = true
zoom = Vector2( 0.8, 0.8 )
script = ExtResource( 3 )

[node name="CenterLight" type="Light2D" parent="."]
position = Vector2( -852.841, 123.522 )
scale = Vector2( 3.93075, 2.05074 )
texture = ExtResource( 2 )
offset = Vector2( 424.609, 137.392 )
energy = 0.5
mode = 2
range_item_cull_mask = 3
